lab2/CA2021_lab2/CA2021_lab2/codes/CPU.vcd
$date
	Thu Jan 20 00:14:12 2022
$end
$version
	Icarus Verilog
$end
$timescale
	1s
$end
$scope module testbench $end
$var wire 256 ! mem_cpu_data [255:0] $end
$var wire 1 " mem_cpu_ack $end
$var wire 1 # cpu_mem_write $end
$var wire 1 $ cpu_mem_enable $end
$var wire 256 % cpu_mem_data [255:0] $end
$var wire 32 & cpu_mem_addr [31:0] $end
$var reg 1 ' Clk $end
$var reg 1 ( Reset $end
$var reg 1 ) Start $end
$var reg 27 * address [26:0] $end
$var reg 1 + flag $end
$var reg 4 , index [3:0] $end
$var reg 25 - tag [24:0] $end
$var integer 32 . counter [31:0] $end
$var integer 32 / i [31:0] $end
$var integer 32 0 j [31:0] $end
$var integer 32 1 outfile [31:0] $end
$var integer 32 2 outfile2 [31:0] $end
$scope module CPU $end
$var wire 1 ' clk_i $end
$var wire 1 ( rst_i $end
$var wire 1 ) start_i $end
$var wire 32 3 next_pc [31:0] $end
$var wire 1 # mem_write_o $end
$var wire 1 $ mem_enable_o $end
$var wire 256 4 mem_data_o [255:0] $end
$var wire 256 5 mem_data_i [255:0] $end
$var wire 32 6 mem_addr_o [31:0] $end
$var wire 1 " mem_ack_i $end
$var wire 32 7 instr_addr [31:0] $end
$var wire 32 8 instr [31:0] $end
$var wire 32 9 imm [31:0] $end
$var wire 32 : dcache_data [31:0] $end
$var wire 32 ; data_to_dcache [31:0] $end
$var wire 1 < cpu_stall $end
$var wire 1 = RegWrite $end
$var wire 32 > RS2_MUX_data [31:0] $end
$var wire 1 ? PCWrite $end
$var wire 1 @ NoOp $end
$var wire 1 A MemtoReg $end
$var wire 1 B MemWrite $end
$var wire 1 C MemRead $end
$var wire 32 D MEMWB_cache_data [31:0] $end
$var wire 1 E MEMWB_RegWrite $end
$var wire 32 F MEMWB_RDdata [31:0] $end
$var wire 5 G MEMWB_RDaddr [4:0] $end
$var wire 1 H MEMWB_MemtoReg $end
$var wire 32 I MEMWB_ALU_result [31:0] $end
$var wire 32 J IFID_instr_addr [31:0] $end
$var wire 32 K IFID_instr [31:0] $end
$var wire 32 L IFID_RS2data [31:0] $end
$var wire 32 M IFID_RS1data [31:0] $end
$var wire 1 N IFIDWrite $end
$var wire 32 O IDEX_imm [31:0] $end
$var wire 10 P IDEX_funct [9:0] $end
$var wire 1 Q IDEX_RegWrite $end
$var wire 32 R IDEX_RS2data [31:0] $end
$var wire 5 S IDEX_RS2addr [4:0] $end
$var wire 32 T IDEX_RS1data [31:0] $end
$var wire 5 U IDEX_RS1addr [4:0] $end
$var wire 5 V IDEX_RDaddr [4:0] $end
$var wire 1 W IDEX_MemtoReg $end
$var wire 1 X IDEX_MemWrite $end
$var wire 1 Y IDEX_MemRead $end
$var wire 1 Z IDEX_ALUSrc $end
$var wire 2 [ IDEX_ALUOp [1:0] $end
$var wire 2 \ ForwardB [1:0] $end
$var wire 2 ] ForwardA [1:0] $end
$var wire 1 ^ Flush $end
$var wire 1 _ Equal_result $end
$var wire 1 ` EXMEM_RegWrite $end
$var wire 5 a EXMEM_RDaddr [4:0] $end
$var wire 1 b EXMEM_MemtoReg $end
$var wire 1 c EXMEM_MemWrite $end
$var wire 1 d EXMEM_MemRead $end
$var wire 32 e EXMEM_ALU_result [31:0] $end
$var wire 1 f Branch $end
$var wire 32 g ALU_result [31:0] $end
$var wire 32 h ALU_data2 [31:0] $end
$var wire 32 i ALU_data1 [31:0] $end
$var wire 1 j ALUSrc $end
$var wire 2 k ALUOp [1:0] $end
$var wire 4 l ALUCtrl [3:0] $end
$var reg 1 m Flush_reg $end
$var reg 1 n IFIDWrite_reg $end
$var reg 1 o NoOp_reg $end
$var reg 1 p PCWrite_reg $end
$var reg 1 q stall_reg $end
$scope module ALU $end
$var wire 32 r data2_i [31:0] $end
$var wire 32 s data1_i [31:0] $end
$var wire 4 t ALUCtrl_i [3:0] $end
$var reg 32 u ALU_result_o [31:0] $end
$upscope $end
$scope module ALUSrc_MUX $end
$var wire 1 Z select_i $end
$var wire 32 v data2_i [31:0] $end
$var wire 32 w data1_i [31:0] $end
$var reg 32 x data_o [31:0] $end
$upscope $end
$scope module ALU_Control $end
$var wire 10 y funct_i [9:0] $end
$var wire 2 z ALUOp_i [1:0] $end
$var reg 4 { ALUCtrl_o [3:0] $end
$upscope $end
$scope module AndGate $end
$var wire 1 _ data2_i $end
$var wire 1 f data1_i $end
$var reg 1 ^ flush_o $end
$upscope $end
$scope module Control $end
$var wire 1 o NoOp_i $end
$var wire 7 | Op_i [6:0] $end
$var reg 2 } ALUOp_o [1:0] $end
$var reg 1 j ALUSrc_o $end
$var reg 1 f Branch_o $end
$var reg 1 C MemRead_o $end
$var reg 1 B MemWrite_o $end
$var reg 1 A MemtoReg_o $end
$var reg 1 = RegWrite_o $end
$upscope $end
$scope module EXMEM $end
$var wire 32 ~ ALU_result_i [31:0] $end
$var wire 1 ' clk_i $end
$var wire 1 ( rst_i $end
$var wire 1 q stall_i $end
$var wire 32 !" data_to_dcache_i [31:0] $end
$var wire 1 Q RegWrite_i $end
$var wire 5 "" RDaddr_i [4:0] $end
$var wire 1 W MemtoReg_i $end
$var wire 1 X MemWrite_i $end
$var wire 1 Y MemRead_i $end
$var reg 32 #" ALU_result_o [31:0] $end
$var reg 1 d MemRead_o $end
$var reg 1 c MemWrite_o $end
$var reg 1 b MemtoReg_o $end
$var reg 5 $" RDaddr_o [4:0] $end
$var reg 1 ` RegWrite_o $end
$var reg 32 %" data_to_dcache_o [31:0] $end
$upscope $end
$scope module Equal $end
$var wire 32 &" data2_i [31:0] $end
$var wire 32 '" data1_i [31:0] $end
$var reg 1 _ result_o $end
$upscope $end
$scope module Forward $end
$var wire 5 (" EXMEM_RDaddr_i [4:0] $end
$var wire 1 ` EXMEM_RegWrite_i $end
$var wire 1 E MEMWB_RegWrite_i $end
$var wire 5 )" MEMWB_RDaddr_i [4:0] $end
$var wire 5 *" IDEX_RS2addr_i [4:0] $end
$var wire 5 +" IDEX_RS1addr_i [4:0] $end
$var reg 2 ," ForwardA_o [1:0] $end
$var reg 2 -" ForwardB_o [1:0] $end
$upscope $end
$scope module Hazard_Detection $end
$var wire 5 ." IFID_RS1addr_i [4:0] $end
$var wire 5 /" IFID_RS2addr_i [4:0] $end
$var wire 5 0" IDEX_RDaddr_i [4:0] $end
$var wire 1 Y IDEX_MemRead_i $end
$var reg 1 N IFIDWrite_o $end
$var reg 1 @ NoOp_o $end
$var reg 1 ? PCWrite_o $end
$upscope $end
$scope module IDEX $end
$var wire 2 1" ALUOp_i [1:0] $end
$var wire 1 j ALUSrc_i $end
$var wire 1 C MemRead_i $end
$var wire 1 B MemWrite_i $end
$var wire 1 A MemtoReg_i $end
$var wire 5 2" RDaddr_i [4:0] $end
$var wire 5 3" RS1addr_i [4:0] $end
$var wire 5 4" RS2addr_i [4:0] $end
$var wire 1 = RegWrite_i $end
$var wire 1 ' clk_i $end
$var wire 10 5" funct_i [9:0] $end
$var wire 1 ( rst_i $end
$var wire 1 q stall_i $end
$var wire 32 6" constant_i [31:0] $end
$var wire 32 7" RS2data_i [31:0] $end
$var wire 32 8" RS1data_i [31:0] $end
$var reg 2 9" ALUOp_o [1:0] $end
$var reg 1 Z ALUSrc_o $end
$var reg 1 Y MemRead_o $end
$var reg 1 X MemWrite_o $end
$var reg 1 W MemtoReg_o $end
$var reg 5 :" RDaddr_o [4:0] $end
$var reg 5 ;" RS1addr_o [4:0] $end
$var reg 32 <" RS1data_o [31:0] $end
$var reg 5 =" RS2addr_o [4:0] $end
$var reg 32 >" RS2data_o [31:0] $end
$var reg 1 Q RegWrite_o $end
$var reg 32 ?" constant_o [31:0] $end
$var reg 10 @" funct_o [9:0] $end
$upscope $end
$scope module IFID $end
$var wire 1 n Write_i $end
$var wire 1 ' clk_i $end
$var wire 1 m flush_i $end
$var wire 1 ( rst_i $end
$var wire 1 q stall_i $end
$var wire 32 A" instr_i [31:0] $end
$var wire 32 B" instr_addr_i [31:0] $end
$var reg 32 C" instr_addr_o [31:0] $end
$var reg 32 D" instr_o [31:0] $end
$upscope $end
$scope module Instruction_Memory $end
$var wire 32 E" instr_o [31:0] $end
$var wire 32 F" addr_i [31:0] $end
$upscope $end
$scope module MEMWB $end
$var wire 32 G" ALU_result_i [31:0] $end
$var wire 1 b MemtoReg_i $end
$var wire 5 H" RDaddr_i [4:0] $end
$var wire 1 ` RegWrite_i $end
$var wire 1 ' clk_i $end
$var wire 1 ( rst_i $end
$var wire 1 q stall_i $end
$var wire 32 I" Memory_data_i [31:0] $end
$var reg 32 J" ALU_result_o [31:0] $end
$var reg 32 K" Memory_data_o [31:0] $end
$var reg 1 H MemtoReg_o $end
$var reg 5 L" RDaddr_o [4:0] $end
$var reg 1 E RegWrite_o $end
$upscope $end
$scope module MemtoReg_MUX $end
$var wire 32 M" data1_i [31:0] $end
$var wire 32 N" data2_i [31:0] $end
$var wire 1 H select_i $end
$var reg 32 O" data_o [31:0] $end
$upscope $end
$scope module PC $end
$var wire 1 p PCWrite_i $end
$var wire 1 ' clk_i $end
$var wire 1 ( rst_i $end
$var wire 1 q stall_i $end
$var wire 1 ) start_i $end
$var wire 32 P" pc_i [31:0] $end
$var reg 32 Q" pc_o [31:0] $end
$upscope $end
$scope module PC_Adder $end
$var wire 32 R" data1_i [31:0] $end
$var wire 32 S" data2_i [31:0] $end
$var reg 32 T" data_o [31:0] $end
$upscope $end
$scope module PC_MUX $end
$var wire 32 U" data1_i [31:0] $end
$var wire 1 m select_i $end
$var wire 32 V" data2_i [31:0] $end
$var reg 32 W" data_o [31:0] $end
$upscope $end
$scope module RS1_MUX $end
$var wire 2 X" Forward_i [1:0] $end
$var wire 32 Y" data1_i [31:0] $end
$var wire 32 Z" data2_i [31:0] $end
$var wire 32 [" data3_i [31:0] $end
$var reg 32 \" data_o [31:0] $end
$upscope $end
$scope module RS2_MUX $end
$var wire 2 ]" Forward_i [1:0] $end
$var wire 32 ^" data1_i [31:0] $end
$var wire 32 _" data2_i [31:0] $end
$var wire 32 `" data3_i [31:0] $end
$var reg 32 a" data_o [31:0] $end
$upscope $end
$scope module Registers $end
$var wire 5 b" RDaddr_i [4:0] $end
$var wire 32 c" RDdata_i [31:0] $end
$var wire 5 d" RS1addr_i [4:0] $end
$var wire 5 e" RS2addr_i [4:0] $end
$var wire 1 E RegWrite_i $end
$var wire 1 ' clk_i $end
$var wire 32 f" RS2data_o [31:0] $end
$var wire 32 g" RS1data_o [31:0] $end
$upscope $end
$scope module Shift $end
$var wire 32 h" data_o [31:0] $end
$var wire 32 i" data_i [31:0] $end
$upscope $end
$scope module Sign_Extend $end
$var wire 32 j" data_i [31:0] $end
$var reg 32 k" constant_o [31:0] $end
$upscope $end
$scope module branch_Adder $end
$var wire 32 l" data1_i [31:0] $end
$var wire 32 m" data2_i [31:0] $end
$var reg 32 n" data_o [31:0] $end
$upscope $end
$scope module dcache $end
$var wire 1 o" cache_dirty $end
$var wire 1 p" cache_sram_enable $end
$var wire 4 q" cache_sram_index [3:0] $end
$var wire 1 r" cache_sram_write $end
$var wire 1 ' clk_i $end
$var wire 1 d cpu_MemRead_i $end
$var wire 1 c cpu_MemWrite_i $end
$var wire 32 s" cpu_addr_i [31:0] $end
$var wire 32 t" cpu_data_i [31:0] $end
$var wire 32 u" cpu_data_o [31:0] $end
$var wire 1 v" cpu_req $end
$var wire 1 < cpu_stall_o $end
$var wire 256 w" mem_data_o [255:0] $end
$var wire 1 $ mem_enable_o $end
$var wire 1 # mem_write_o $end
$var wire 1 ( rst_i $end
$var wire 1 x" write_hit $end
$var wire 1 y" sram_valid $end
$var wire 22 z" sram_tag [21:0] $end
$var wire 1 {" sram_dirty $end
$var wire 25 |" sram_cache_tag [24:0] $end
$var wire 256 }" sram_cache_data [255:0] $end
$var wire 256 ~" r_hit_data [255:0] $end
$var wire 256 !# mem_data_i [255:0] $end
$var wire 32 "# mem_addr_o [31:0] $end
$var wire 1 " mem_ack_i $end
$var wire 1 ## hit $end
$var wire 23 $# cpu_tag [22:0] $end
$var wire 5 %# cpu_offset [4:0] $end
$var wire 4 &# cpu_index [3:0] $end
$var wire 25 '# cache_sram_tag [24:0] $end
$var wire 256 (# cache_sram_data [255:0] $end
$var reg 1 )# cache_write $end
$var reg 32 *# cpu_data [31:0] $end
$var reg 1 +# mem_enable $end
$var reg 1 ,# mem_write $end
$var reg 3 -# state [2:0] $end
$var reg 256 .# w_hit_data [255:0] $end
$var reg 1 /# write_back $end
$var integer 32 0# i [31:0] $end
$scope module dcache_sram $end
$var wire 4 1# addr_i [3:0] $end
$var wire 1 ' clk_i $end
$var wire 256 2# data_i [255:0] $end
$var wire 1 p" enable_i $end
$var wire 1 ## hit_o $end
$var wire 1 ( rst_i $end
$var wire 25 3# tag_i [24:0] $end
$var wire 1 r" write_i $end
$var wire 25 4# tag_o [24:0] $end
$var wire 1 5# hit1 $end
$var wire 1 6# hit0 $end
$var wire 256 7# data_o [255:0] $end
$var integer 32 8# i [31:0] $end
$var integer 32 9# j [31:0] $end
$upscope $end
$upscope $end
$upscope $end
$scope module Data_Memory $end
$var wire 1 " ack_o $end
$var wire 32 :# addr_i [31:0] $end
$var wire 1 ' clk_i $end
$var wire 256 ;# data_i [255:0] $end
$var wire 256 <# data_o [255:0] $end
$var wire 1 $ enable_i $end
$var wire 1 ( rst_i $end
$var wire 1 # write_i $end
$var wire 27 =# addr [26:0] $end
$var reg 4 ># count [3:0] $end
$var reg 256 ?# data [255:0] $end
$var reg 2 @# state [1:0] $end
$upscope $end
$upscope $end
$enddefinitions $end
#0
$dumpvars
bx @#
bx ?#
bx >#
bx =#
bx <#
bx ;#
bx00000 :#
bx 9#
bx 8#
bx 7#
x6#
x5#
bx 4#
b1xxxxxxxxxxxxxxxxxxxxxxxx 3#
bx 2#
bx 1#
bx 0#
x/#
bx .#
bx -#
x,#
x+#
bx *#
x)#
bx (#
b1xxxxxxxxxxxxxxxxxxxxxxxx '#
bx &#
bx %#
bx $#
x##
bx00000 "#
bx !#
bx ~"
bx }"
bx |"
x{"
bx z"
xy"
xx"
bx w"
xv"
bx u"
bx t"
bx s"
xr"
bx q"
xp"
xo"
bx n"
bx m"
bx0 l"
bx k"
bx j"
bx i"
bx0 h"
bx g"
bx f"
bx e"
bx d"
bx c"
bx b"
bx a"
bx `"
bx _"
bx ^"
bx ]"
bx \"
bx ["
bx Z"
bx Y"
bx X"
b100 W"
bx V"
b100 U"
b100 T"
b100 S"
b0 R"
b0 Q"
b100 P"
bx O"
bx N"
bx M"
bx L"
bx K"
bx J"
bx I"
bx H"
bx G"
b0 F"
bx E"
bx D"
bx C"
b0 B"
bx A"
bx @"
bx ?"
bx >"
bx ="
bx <"
bx ;"
bx :"
bx 9"
bx 8"
bx 7"
bx 6"
bx 5"
bx 4"
bx 3"
bx 2"
b0 1"
bx 0"
bx /"
bx ."
bx -"
bx ,"
bx +"
bx *"
bx )"
bx ("
bx '"
bx &"
bx %"
bx $"
bx #"
bx ""
bx !"
bx ~
b0 }
bx |
bx {
bx z
bx y
bx x
bx w
bx v
bx u
bx t
bx s
bx r
0q
1p
0o
1n
0m
bx l
b0 k
0j
bx i
bx h
bx g
0f
bx e
xd
xc
xb
bx a
x`
x_
0^
bx ]
bx \
bx [
xZ
xY
xX
xW
bx V
bx U
bx T
bx S
bx R
xQ
bx P
bx O
xN
bx M
bx L
bx K
bx J
bx I
xH
bx G
bx F
xE
bx D
0C
0B
0A
x@
x?
bx >
0=
x<
bx ;
bx :
bx 9
bx 8
b0 7
bx00000 6
bx 5
bx 4
b100 3
bx 2
bx 1
bx 0
bx /
b0 .
bx -
bx ,
x+
bx *
0)
1(
0'
bx00000 &
bx %
x$
x#
x"
bx !
$end
#12
0@
1N
1?
0##
b0 =#
06#
05#
b0 z"
0{"
0y"
1_
b0 g
b0 u
b0 ~
b0 &
b0 6
b0 "#
b0 :#
0r"
0<
b0 |"
b0 4#
b0 %
b0 4
b0 w"
b0 ;#
b0 }"
b0 7#
b0 M
b0 '"
b0 8"
b0 g"
b0 L
b0 &"
b0 7"
b0 f"
b0 2"
b0 4"
b0 3"
b0 5"
b0 /"
b0 ."
b0 |
b0 e"
b0 d"
b10 l
b10 t
b10 {
b0 h
b0 r
b0 x
b100000 0#
b0 i
b0 s
b0 \"
b0 >
b0 w
b0 !"
b0 a"
b0 $#
b0 q"
b0 1#
b0 &#
b0 %#
b1000000000000000000000000 '#
b1000000000000000000000000 3#
0o"
0x"
0p"
0v"
b0 F
b0 O"
b0 Z"
b0 _"
b0 c"
b0 \
b0 -"
b0 ]"
b0 ]
b0 ,"
b0 X"
0"
b0 K
b0 D"
b0 j"
b0 J
b0 C"
b0 m"
b0 V
b0 ""
b0 0"
b0 :"
b0 S
b0 *"
b0 ="
b0 U
b0 +"
b0 ;"
b0 P
b0 y
b0 @"
b0 O
b0 v
b0 ?"
b0 R
b0 >"
b0 ^"
b0 T
b0 <"
b0 Y"
b0 [
b0 z
b0 9"
0Z
0X
0Y
0W
0Q
b0 a
b0 $"
b0 ("
b0 H"
b0 ;
b0 %"
b0 t"
b0 e
b0 #"
b0 G"
b0 ["
b0 `"
b0 s"
0c
0d
0b
0`
0/#
0)#
0#
0,#
0$
0+#
b0 -#
b0 G
b0 )"
b0 L"
b0 b"
b0 D
b0 K"
b0 N"
b0 I
b0 J"
b0 M"
0H
0E
b0 >#
b0 @#
b10 9#
b10000 8#
b101 2
b11 1
b10 0
b10011110000011 8
b10011110000011 A"
b10011110000011 E"
b1000000000 /
1)
0(
#25
b0 V"
b0 n"
b0 h"
b0 l"
1j
1C
1A
1=
b1000 P"
b1000 W"
b0 9
b0 6"
b0 i"
b0 k"
b1111 2"
b10 5"
b11 |
b10000000010011100000011 8
b10000000010011100000011 A"
b10000000010011100000011 E"
b1000 3
b1000 T"
b1000 U"
b10011110000011 K
b10011110000011 D"
b10011110000011 j"
bx O
bx v
bx ?"
bx D
bx K"
bx N"
b100 7
b100 B"
b100 F"
b100 Q"
b100 R"
b1 .
0+
1'
#50
0'
#75
b1000 h"
b1000 l"
b1100 P"
b1100 W"
b100 9
b100 6"
b100 i"
b100 k"
b1110 2"
b100 4"
b100 /"
b100 e"
b1100 V"
b1100 n"
b100000000010011010000011 8
b100000000010011010000011 A"
b100000000010011010000011 E"
b1100 3
b1100 T"
b1100 U"
b1111 V
b1111 ""
b1111 0"
b1111 :"
b10 P
b10 y
b10 @"
b0 O
b0 v
b0 ?"
1Z
1Y
1W
1Q
b10000000010011100000011 K
b10000000010011100000011 D"
b10000000010011100000011 j"
b100 J
b100 C"
b100 m"
b1000 7
b1000 B"
b1000 F"
b1000 Q"
b1000 R"
b10 .
1'
#100
0'
#125
1q
b10000 h"
b10000 l"
b100 g
b100 u
b100 ~
1<
b10000 P"
b10000 W"
b1000 9
b1000 6"
b1000 i"
b1000 k"
b1101 2"
b1000 4"
b1000 /"
b1000 e"
b11000 V"
b11000 n"
b100 h
b100 r
b100 x
1p"
1v"
b110000000010011000000011 8
b110000000010011000000011 A"
b110000000010011000000011 E"
b10000 3
b10000 T"
b10000 U"
b100000000010011010000011 K
b100000000010011010000011 D"
b100000000010011010000011 j"
b1000 J
b1000 C"
b1000 m"
b1110 V
b1110 ""
b1110 0"
b1110 :"
b100 S
b100 *"
b100 ="
b100 O
b100 v
b100 ?"
b1111 a
b1111 $"
b1111 ("
b1111 H"
1d
1b
1`
b1100 7
b1100 B"
b1100 F"
b1100 Q"
b1100 R"
b11 .
1'
#150
0'
#175
b100 -#
1$
1+#
b100 .
1+
1'
#200
0'
#225
b1 -#
b1 >#
b1 @#
b101 .
1'
#250
0'
#275
b10 >#
b110 .
1'
#300
0'
#325
b11 >#
b111 .
1'
#350
0'
#375
b100 >#
b1000 .
1'
#400
0'
#425
b101 >#
b1001 .
1'
#450
0'
#475
b110 >#
b1010 .
1'
#500
0'
#525
b111 >#
b1011 .
1'
#550
0'
#575
b1000 >#
b1100 .
1'
#600
0'
#625
1"
b1001 >#
b1101 .
1'
#650
0'
#675
0"
1r"
b0 >#
b0 @#
b10 -#
1)#
0$
0+#
b100010001000100100010001000100011001100110011010001000100010001010101010101010110011001100110011101110111011110001000100010001001100110011001101010101010101010111011101110111100110011001100110111011101110111101110111011101111111111111111 .#
b11101110111011101111111111111111 :
b11101110111011101111111111111111 I"
b11101110111011101111111111111111 u"
b11101110111011101111111111111111 *#
b100000 0#
b100010001000100100010001000100011001100110011010001000100010001010101010101010110011001100110011101110111011110001000100010001001100110011001101010101010101010111011101110111100110011001100110111011101110111101110111011101111111111111111 ~"
b100010001000100100010001000100011001100110011010001000100010001010101010101010110011001100110011101110111011110001000100010001001100110011001101010101010101010111011101110111100110011001100110111011101110111101110111011101111111111111111 (#
b100010001000100100010001000100011001100110011010001000100010001010101010101010110011001100110011101110111011110001000100010001001100110011001101010101010101010111011101110111100110011001100110111011101110111101110111011101111111111111111 2#
b1110 .
b100010001000100100010001000100011001100110011010001000100010001010101010101010110011001100110011101110111011110001000100010001001100110011001101010101010101010111011101110111100110011001100110111011101110111101110111011101111111111111111 !
b100010001000100100010001000100011001100110011010001000100010001010101010101010110011001100110011101110111011110001000100010001001100110011001101010101010101010111011101110111100110011001100110111011101110111101110111011101111111111111111 5
b100010001000100100010001000100011001100110011010001000100010001010101010101010110011001100110011101110111011110001000100010001001100110011001101010101010101010111011101110111100110011001100110111011101110111101110111011101111111111111111 !#
b100010001000100100010001000100011001100110011010001000100010001010101010101010110011001100110011101110111011110001000100010001001100110011001101010101010101010111011101110111100110011001100110111011101110111101110111011101111111111111111 <#
b100010001000100100010001000100011001100110011010001000100010001010101010101010110011001100110011101110111011110001000100010001001100110011001101010101010101010111011101110111100110011001100110111011101110111101110111011101111111111111111 ?#
1'
#700
0'
#725
0q
0<
1y"
b100010001000100100010001000100011001100110011010001000100010001010101010101010110011001100110011101110111011110001000100010001001100110011001101010101010101010111011101110111100110011001100110111011101110111101110111011101111111111111111 %
b100010001000100100010001000100011001100110011010001000100010001010101010101010110011001100110011101110111011110001000100010001001100110011001101010101010101010111011101110111100110011001100110111011101110111101110111011101111111111111111 4
b100010001000100100010001000100011001100110011010001000100010001010101010101010110011001100110011101110111011110001000100010001001100110011001101010101010101010111011101110111100110011001100110111011101110111101110111011101111111111111111 w"
b100010001000100100010001000100011001100110011010001000100010001010101010101010110011001100110011101110111011110001000100010001001100110011001101010101010101010111011101110111100110011001100110111011101110111101110111011101111111111111111 ;#
b100010001000100100010001000100011001100110011010001000100010001010101010101010110011001100110011101110111011110001000100010001001100110011001101010101010101010111011101110111100110011001100110111011101110111101110111011101111111111111111 }"
b100010001000100100010001000100011001100110011010001000100010001010101010101010110011001100110011101110111011110001000100010001001100110011001101010101010101010111011101110111100110011001100110111011101110111101110111011101111111111111111 7#
1##
b1000000000000000000000000 |"
b1000000000000000000000000 4#
16#
0r"
b0 -#
0)#
b1111 .
1'
#750
0'
#775
b11001100110011001101110111011101 :
b11001100110011001101110111011101 I"
b11001100110011001101110111011101 u"
b11001100110011001101110111011101 *#
b100000 0#
b1000 g
b1000 u
b1000 ~
b11000 h"
b11000 l"
b10100 P"
b10100 W"
b11101110111011101111111111111111 F
b11101110111011101111111111111111 O"
b11101110111011101111111111111111 Z"
b11101110111011101111111111111111 _"
b11101110111011101111111111111111 c"
b100 %#
b1000 h
b1000 r
b1000 x
b1100 9
b1100 6"
b1100 i"
b1100 k"
b1100 2"
b1100 4"
b1100 /"
b1100 e"
b100100 V"
b100100 n"
b1000000000010010110000011 8
b1000000000010010110000011 A"
b1000000000010010110000011 E"
b10100 3
b10100 T"
b10100 U"
b1111 G
b1111 )"
b1111 L"
b1111 b"
b11101110111011101111111111111111 D
b11101110111011101111111111111111 K"
b11101110111011101111111111111111 N"
1H
1E
b1110 a
b1110 $"
b1110 ("
b1110 H"
b100 e
b100 #"
b100 G"
b100 ["
b100 `"
b100 s"
b1101 V
b1101 ""
b1101 0"
b1101 :"
b1000 S
b1000 *"
b1000 ="
b1000 O
b1000 v
b1000 ?"
b110000000010011000000011 K
b110000000010011000000011 D"
b110000000010011000000011 j"
b1100 J
b1100 C"
b1100 m"
b10000 7
b10000 B"
b10000 F"
b10000 Q"
b10000 R"
b10000 .
0+
1'
#800
0'
#825
0@
1N
1?
b100000 h"
b100000 l"
b1100 g
b1100 u
b1100 ~
b10101010101010101011101110111011 :
b10101010101010101011101110111011 I"
b10101010101010101011101110111011 u"
b10101010101010101011101110111011 *#
b100000 0#
b11000 P"
b11000 W"
b10000 9
b10000 6"
b10000 i"
b10000 k"
b1011 2"
b10000 4"
b10000 /"
b10000 e"
b110000 V"
b110000 n"
b1100 h
b1100 r
b1100 x
b1000 %#
b11001100110011001101110111011101 F
b11001100110011001101110111011101 O"
b11001100110011001101110111011101 Z"
b11001100110011001101110111011101 _"
b11001100110011001101110111011101 c"
b1010000000010010100000011 8
b1010000000010010100000011 A"
b1010000000010010100000011 E"
b11000 3
b11000 T"
b11000 U"
b1000000000010010110000011 K
b1000000000010010110000011 D"
b1000000000010010110000011 j"
b10000 J
b10000 C"
b10000 m"
b1100 V
b1100 ""
b1100 0"
b1100 :"
b1100 S
b1100 *"
b1100 ="
b1100 O
b1100 v
b1100 ?"
b1101 a
b1101 $"
b1101 ("
b1101 H"
b1000 e
b1000 #"
b1000 G"
b1000 ["
b1000 `"
b1000 s"
b1110 G
b1110 )"
b1110 L"
b1110 b"
b11001100110011001101110111011101 D
b11001100110011001101110111011101 K"
b11001100110011001101110111011101 N"
b100 I
b100 J"
b100 M"
b10100 7
b10100 B"
b10100 F"
b10100 Q"
b10100 R"
b10001 .
1'
#850
0'
#875
b10001000100010001001100110011001 :
b10001000100010001001100110011001 I"
b10001000100010001001100110011001 u"
b10001000100010001001100110011001 *#
b100000 0#
b10000 g
b10000 u
b10000 ~
b101000 h"
b101000 l"
b11100 P"
b11100 W"
b10101010101010101011101110111011 F
b10101010101010101011101110111011 O"
b10101010101010101011101110111011 Z"
b10101010101010101011101110111011 _"
b10101010101010101011101110111011 c"
b1100 %#
b10000 h
b10000 r
b10000 x
b10100 9
b10100 6"
b10100 i"
b10100 k"
b1010 2"
b10100 4"
b10100 /"
b10100 e"
b111100 V"
b111100 n"
b1100000000010010010000011 8
b1100000000010010010000011 A"
b1100000000010010010000011 E"
b11100 3
b11100 T"
b11100 U"
b1101 G
b1101 )"
b1101 L"
b1101 b"
b10101010101010101011101110111011 D
b10101010101010101011101110111011 K"
b10101010101010101011101110111011 N"
b1000 I
b1000 J"
b1000 M"
b1100 a
b1100 $"
b1100 ("
b1100 H"
b1100 e
b1100 #"
b1100 G"
b1100 ["
b1100 `"
b1100 s"
b1011 V
b1011 ""
b1011 0"
b1011 :"
b10000 S
b10000 *"
b10000 ="
b10000 O
b10000 v
b10000 ?"
b1010000000010010100000011 K
b1010000000010010100000011 D"
b1010000000010010100000011 j"
b10100 J
b10100 C"
b10100 m"
b11000 7
b11000 B"
b11000 F"
b11000 Q"
b11000 R"
b10010 .
1'
#900
0'
#925
b110000 h"
b110000 l"
b10100 g
b10100 u
b10100 ~
b1100110011001100111011101110111 :
b1100110011001100111011101110111 I"
b1100110011001100111011101110111 u"
b1100110011001100111011101110111 *#
b100000 0#
b100000 P"
b100000 W"
b11000 9
b11000 6"
b11000 i"
b11000 k"
b1001 2"
b11000 4"
b11000 /"
b11000 e"
b1001000 V"
b1001000 n"
b10100 h
b10100 r
b10100 x
b10000 %#
b10001000100010001001100110011001 F
b10001000100010001001100110011001 O"
b10001000100010001001100110011001 Z"
b10001000100010001001100110011001 _"
b10001000100010001001100110011001 c"
b1110000000010010000000011 8
b1110000000010010000000011 A"
b1110000000010010000000011 E"
b100000 3
b100000 T"
b100000 U"
b1100000000010010010000011 K
b1100000000010010010000011 D"
b1100000000010010010000011 j"
b11000 J
b11000 C"
b11000 m"
b1010 V
b1010 ""
b1010 0"
b1010 :"
b10100 S
b10100 *"
b10100 ="
b10100 O
b10100 v
b10100 ?"
b1011 a
b1011 $"
b1011 ("
b1011 H"
b10000 e
b10000 #"
b10000 G"
b10000 ["
b10000 `"
b10000 s"
b1100 G
b1100 )"
b1100 L"
b1100 b"
b10001000100010001001100110011001 D
b10001000100010001001100110011001 K"
b10001000100010001001100110011001 N"
b1100 I
b1100 J"
b1100 M"
b11100 7
b11100 B"
b11100 F"
b11100 Q"
b11100 R"
b10011 .
1'
#950
0'
